{
  "rabbit_version": "3.8.3",
  "rabbitmq_version": "3.8.3",
  "users": [
    {
      "name": "guest",
      "password_hash": "mVwSVPqWhkPpvHQakBK3yK3Nwqeb6XSzRDKLaJMoBxAgL/pw",
      "hashing_algorithm": "rabbit_password_hashing_sha256",
      "tags": "administrator"
    }
  ],
  "vhosts": [
    {
      "name": "/"
    }
  ],
  "permissions": [
    {
      "user": "guest",
      "vhost": "/",
      "configure": ".*",
      "write": ".*",
      "read": ".*"
    }
  ],
  "topic_permissions": [],
  "parameters": [],
  "global_parameters": [
    {
      "name": "cluster_name",
      "value": "rabbit@f4e0e7ca517b"
    },
    {
      "name": "internal_cluster_id",
      "value": "rabbitmq-cluster-id-ZkuEoEcsqLBzkcPpklUhiQ"
    }
  ],
  "policies": [],
  "queues": [
    {
      "name": "EMAIL",
      "vhost": "/",
      "durable": true,
      "auto_delete": false,
      "arguments": {
        "x-queue-type": "classic"
      }
    }
  ],
  "exchanges": [],
  "bindings": []
}
